{
    "sources": [
        {"name": "Voices of Nuclear FR", "source": "https://framagit.org/tykayn/acronymify-voices-of-nuclear/-/raw/main/voices-of-nuclear-fr.json"},
        {"name": "Voices of Nuclear EN", "source": "https://framagit.org/tykayn/acronymify-voices-of-nuclear/-/raw/main/voices-of-nuclear-en.json"}
    ],
    "url_add": "https://framagit.org/tykayn/acronymify-voices-of-nuclear/-/merge_requests",
    "mail_add": "contact@cipherbliss.com"
}