{
    "entries": [

    {
        "Acronym": "PWR",
        "Meaning": "Pressurized water reactor",
        "Hint": "most nuclear reactors are made this kind of way in the world",
        "Alternatives": "",
        "url": ""
      },

    {
      "Acronym": "EPR",
      "Meaning": "Evolutionary pressurized reactor",
      "Hint": "Gen 3 of water pressurized reactor, its design is aiming for more simplicity, more power output (1700MWe) and 10x more safety than the Gen2 water pressurized reactors.",
      "Alternatives": "",
      "url": ""
    }
    ]
}